resistor_power.vcd
$date
  today
$end
$version
  metalfpga
$end
$timescale 1ns $end
$scope module testbench_resistor_power $end
$var wire 1 % clk $end
$var real 64 ! current $end
$var real 64 " power $end
$var wire 1 $ reset $end
$var real 64 # voltage $end
$upscope $end
$enddefinitions $end
#0
r0 !
r0 "
r0 #
0$
0%
1$
#100
0$
#83333
1%
#166666
0%
#249999
1%
r10.6744 #
r0.106744 !
r1.13943 "
#333332
0%
#416665
1%
r21.3066 #
r0.213066 !
r4.53973 "
#499998
0%
#583331
1%
r31.8548 #
r0.318548 !
r10.1473 "
#666664
0%
#749997
1%
r42.2773 #
r0.422773 !
r17.8737 "
#833330
0%
#916663
1%
r52.5329 #
r0.525329 !
r27.597 "
#999996
0%
#1083329
1%
r62.5812 #
r0.625812 !
r39.164 "
#1166662
0%
#1249995
1%
r72.3825 #
r0.723825 !
r52.3922 "
#1333328
0%
#1416661
1%
r81.8981 #
r0.818981 !
r67.073 "
#1499994
0%
#1583327
1%
r91.0906 #
r0.910906 !
r82.9749 "
#1666660
0%
#1749993
1%
r99.9235 #
r0.999235 !
r99.847 "
#1833326
0%
#1916659
1%
r108.362 #
r1.08362 !
r117.423 "
#1999992
0%
#2083325
1%
r116.373 #
r1.16373 !
r135.427 "
#2166658
0%
#2249991
1%
r123.925 #
r1.23925 !
r153.573 "
#2333324
0%
#2416657
1%
r130.987 #
r1.30987 !
r171.577 "
#2499990
0%
#2583323
1%
r137.533 #
r1.37533 !
r189.153 "
#2666656
0%
#2749989
1%
r143.536 #
r1.43536 !
r206.025 "
#2833322
0%
#2916655
1%
r148.972 #
r1.48972 !
r221.927 "
#2999988
0%
#3083321
1%
r153.821 #
r1.53821 !
r236.608 "
#3166654
0%
#3249987
1%
r158.062 #
r1.58062 !
r249.836 "
#3333320
0%
#3416653
1%
r161.68 #
r1.6168 !
r261.403 "
#3499986
0%
#3583319
1%
r164.659 #
r1.64659 !
r271.126 "
#3666652
0%
#3749985
1%
r166.989 #
r1.66989 !
r278.853 "
#3833318
0%
#3916651
1%
r168.659 #
r1.68659 !
r284.46 "
#3999984
0%
#4083317
1%
r169.665 #
r1.69665 !
r287.861 "
#4166650
0%
#4249983
1%
r170 #
r1.7 !
r289 "
#4333316
0%
#4416649
1%
r169.665 #
r1.69665 !
r287.861 "
#4499982
0%
#4583315
1%
r168.659 #
r1.68659 !
r284.46 "
#4666648
0%
#4749981
1%
r166.989 #
r1.66989 !
r278.853 "
#4833314
0%
#4916647
1%
r164.659 #
r1.64659 !
r271.126 "
#4999980
0%
#5083313
1%
r161.68 #
r1.6168 !
r261.403 "
#5166646
0%
#5249979
1%
r158.062 #
r1.58062 !
r249.836 "
#5333312
0%
#5416645
1%
r153.821 #
r1.53821 !
r236.608 "
#5499978
0%
#5583311
1%
r148.972 #
r1.48972 !
r221.927 "
#5666644
0%
#5749977
1%
r143.536 #
r1.43536 !
r206.025 "
#5833310
0%
#5916643
1%
r137.533 #
r1.37533 !
r189.153 "
#5999976
0%
#6083309
1%
r130.987 #
r1.30987 !
r171.577 "
#6166642
0%
#6249975
1%
r123.925 #
r1.23925 !
r153.573 "
#6333308
0%
#6416641
1%
r116.373 #
r1.16373 !
r135.427 "
#6499974
0%
#6583307
1%
r108.362 #
r1.08362 !
r117.423 "
#6666640
0%
#6749973
1%
r99.9235 #
r0.999235 !
r99.847 "
#6833306
0%
#6916639
1%
r91.0906 #
r0.910906 !
r82.9749 "
#6999972
0%
#7083305
1%
r81.8981 #
r0.818981 !
r67.073 "
#7166638
0%
#7249971
1%
r72.3825 #
r0.723825 !
r52.3922 "
#7333304
0%
#7416637
1%
r62.5812 #
r0.625812 !
r39.164 "
#7499970
0%
#7583303
1%
r52.5329 #
r0.525329 !
r27.597 "
#7666636
0%
#7749969
1%
r42.2773 #
r0.422773 !
r17.8737 "
#7833302
0%
#7916635
1%
r31.8548 #
r0.318548 !
r10.1473 "
#7999968
0%
#8083301
1%
r21.3066 #
r0.213066 !
r4.53973 "
#8166634
0%
#8249967
1%
r10.6744 #
r0.106744 !
r1.13943 "
#8333300
0%
#8416633
1%
r2.0819e-14 #
r2.0819e-16 !
r4.33431e-30 "
#8499966
0%
#8583299
1%
r-10.6744 #
r-0.106744 !
r1.13943 "
#8666632
0%
#8749965
1%
r-21.3066 #
r-0.213066 !
r4.53973 "
#8833298
0%
#8916631
1%
r-31.8548 #
r-0.318548 !
r10.1473 "
#8999964
0%
#9083297
1%
r-42.2773 #
r-0.422773 !
r17.8737 "
#9166630
0%
#9249963
1%
r-52.5329 #
r-0.525329 !
r27.597 "
#9333296
0%
#9416629
1%
r-62.5812 #
r-0.625812 !
r39.164 "
#9499962
0%
#9583295
1%
r-72.3825 #
r-0.723825 !
r52.3922 "
#9666628
0%
#9749961
1%
r-81.8981 #
r-0.818981 !
r67.073 "
#9833294
0%
#9916627
1%
r-91.0906 #
r-0.910906 !
r82.9749 "
#9999960
0%
#10083293
1%
r-99.9235 #
r-0.999235 !
r99.847 "
#10166626
0%
#10249959
1%
r-108.362 #
r-1.08362 !
r117.423 "
#10333292
0%
#10416625
1%
r-116.373 #
r-1.16373 !
r135.427 "
#10499958
0%
#10583291
1%
r-123.925 #
r-1.23925 !
r153.573 "
#10666624
0%
#10749957
1%
r-130.987 #
r-1.30987 !
r171.577 "
#10833290
0%
#10916623
1%
r-137.533 #
r-1.37533 !
r189.153 "
#10999956
0%
#11083289
1%
r-143.536 #
r-1.43536 !
r206.025 "
#11166622
0%
#11249955
1%
r-148.972 #
r-1.48972 !
r221.927 "
#11333288
0%
#11416621
1%
r-153.821 #
r-1.53821 !
r236.608 "
#11499954
0%
#11583287
1%
r-158.062 #
r-1.58062 !
r249.836 "
#11666620
0%
#11749953
1%
r-161.68 #
r-1.6168 !
r261.403 "
#11833286
0%
#11916619
1%
r-164.659 #
r-1.64659 !
r271.126 "
#11999952
0%
#12083285
1%
r-166.989 #
r-1.66989 !
r278.853 "
#12166618
0%
#12249951
1%
r-168.659 #
r-1.68659 !
r284.46 "
#12333284
0%
#12416617
1%
r-169.665 #
r-1.69665 !
r287.861 "
#12499950
0%
#12583283
1%
r-170 #
r-1.7 !
r289 "
#12666616
0%
#12749949
1%
r-169.665 #
r-1.69665 !
r287.861 "
#12833282
0%
#12916615
1%
r-168.659 #
r-1.68659 !
r284.46 "
#12999948
0%
#13083281
1%
r-166.989 #
r-1.66989 !
r278.853 "
#13166614
0%
#13249947
1%
r-164.659 #
r-1.64659 !
r271.126 "
#13333280
0%
#13416613
1%
r-161.68 #
r-1.6168 !
r261.403 "
#13499946
0%
#13583279
1%
r-158.062 #
r-1.58062 !
r249.836 "
#13666612
0%
#13749945
1%
r-153.821 #
r-1.53821 !
r236.608 "
#13833278
0%
#13916611
1%
r-148.972 #
r-1.48972 !
r221.927 "
#13999944
0%
#14083277
1%
r-143.536 #
r-1.43536 !
r206.025 "
#14166610
0%
#14249943
1%
r-137.533 #
r-1.37533 !
r189.153 "
#14333276
0%
#14416609
1%
r-130.987 #
r-1.30987 !
r171.577 "
#14499942
0%
#14583275
1%
r-123.925 #
r-1.23925 !
r153.573 "
#14666608
0%
#14749941
1%
r-116.373 #
r-1.16373 !
r135.427 "
#14833274
0%
#14916607
1%
r-108.362 #
r-1.08362 !
r117.423 "
#14999940
0%
#15083273
1%
r-99.9235 #
r-0.999235 !
r99.847 "
#15166606
0%
#15249939
1%
r-91.0906 #
r-0.910906 !
r82.9749 "
#15333272
0%
#15416605
1%
r-81.8981 #
r-0.818981 !
r67.073 "
#15499938
0%
#15583271
1%
r-72.3825 #
r-0.723825 !
r52.3922 "
#15666604
0%
#15749937
1%
r-62.5812 #
r-0.625812 !
r39.164 "
#15833270
0%
#15916603
1%
r-52.5329 #
r-0.525329 !
r27.597 "
#15999936
0%
#16083269
1%
r-42.2773 #
r-0.422773 !
r17.8737 "
#16166602
0%
#16249935
1%
r-31.8548 #
r-0.318548 !
r10.1473 "
#16333268
0%
#16416601
1%
r-21.3066 #
r-0.213066 !
r4.53973 "
#16499934
0%
#16583267
1%
r-10.6744 #
r-0.106744 !
r1.13943 "
#16666600
0%
#16749933
1%
r0 #
r0 !
r0 "
#16833266
0%
#16916599
1%
r10.6744 #
r0.106744 !
r1.13943 "
#16999932
0%
#17083265
1%
r21.3066 #
r0.213066 !
r4.53973 "
#17166598
0%
#17249931
1%
r31.8548 #
r0.318548 !
r10.1473 "
#17333264
0%
#17416597
1%
r42.2773 #
r0.422773 !
r17.8737 "
#17499930
0%
#17583263
1%
r52.5329 #
r0.525329 !
r27.597 "
#17666596
0%
#17749929
1%
r62.5812 #
r0.625812 !
r39.164 "
#17833262
0%
#17916595
1%
r72.3825 #
r0.723825 !
r52.3922 "
#17999928
0%
#18083261
1%
r81.8981 #
r0.818981 !
r67.073 "
#18166594
0%
#18249927
1%
r91.0906 #
r0.910906 !
r82.9749 "
#18333260
0%
#18416593
1%
r99.9235 #
r0.999235 !
r99.847 "
#18499926
0%
#18583259
1%
r108.362 #
r1.08362 !
r117.423 "
#18666592
0%
#18749925
1%
r116.373 #
r1.16373 !
r135.427 "
#18833258
0%
#18916591
1%
r123.925 #
r1.23925 !
r153.573 "
#18999924
0%
#19083257
1%
r130.987 #
r1.30987 !
r171.577 "
#19166590
0%
#19249923
1%
r137.533 #
r1.37533 !
r189.153 "
#19333256
0%
#19416589
1%
r143.536 #
r1.43536 !
r206.025 "
#19499922
0%
#19583255
1%
r148.972 #
r1.48972 !
r221.927 "
#19666588
0%
#19749921
1%
r153.821 #
r1.53821 !
r236.608 "
#19833254
0%
#19916587
1%
r158.062 #
r1.58062 !
r249.836 "
#19999920
0%
#20083253
1%
r161.68 #
r1.6168 !
r261.403 "
#20166586
0%
#20249919
1%
r164.659 #
r1.64659 !
r271.126 "
#20333252
0%
#20416585
1%
r166.989 #
r1.66989 !
r278.853 "
#20499918
0%
#20583251
1%
r168.659 #
r1.68659 !
r284.46 "
#20666584
0%
#20749917
1%
r169.665 #
r1.69665 !
r287.861 "
#20833250
0%
#20916583
1%
r170 #
r1.7 !
r289 "
#20999916
0%
#21083249
1%
r169.665 #
r1.69665 !
r287.861 "
#21166582
0%
#21249915
1%
r168.659 #
r1.68659 !
r284.46 "
#21333248
0%
#21416581
1%
r166.989 #
r1.66989 !
r278.853 "
#21499914
0%
#21583247
1%
r164.659 #
r1.64659 !
r271.126 "
#21666580
0%
#21749913
1%
r161.68 #
r1.6168 !
r261.403 "
#21833246
0%
#21916579
1%
r158.062 #
r1.58062 !
r249.836 "
#21999912
0%
#22083245
1%
r153.821 #
r1.53821 !
r236.608 "
#22166578
0%
#22249911
1%
r148.972 #
r1.48972 !
r221.927 "
#22333244
0%
#22416577
1%
r143.536 #
r1.43536 !
r206.025 "
#22499910
0%
#22583243
1%
r137.533 #
r1.37533 !
r189.153 "
#22666576
0%
#22749909
1%
r130.987 #
r1.30987 !
r171.577 "
#22833242
0%
#22916575
1%
r123.925 #
r1.23925 !
r153.573 "
#22999908
0%
#23083241
1%
r116.373 #
r1.16373 !
r135.427 "
#23166574
0%
#23249907
1%
r108.362 #
r1.08362 !
r117.423 "
#23333240
0%
#23416573
1%
r99.9235 #
r0.999235 !
r99.847 "
#23499906
0%
#23583239
1%
r91.0906 #
r0.910906 !
r82.9749 "
#23666572
0%
#23749905
1%
r81.8981 #
r0.818981 !
r67.073 "
#23833238
0%
#23916571
1%
r72.3825 #
r0.723825 !
r52.3922 "
#23999904
0%
#24083237
1%
r62.5812 #
r0.625812 !
r39.164 "
#24166570
0%
#24249903
1%
r52.5329 #
r0.525329 !
r27.597 "
#24333236
0%
#24416569
1%
r42.2773 #
r0.422773 !
r17.8737 "
#24499902
0%
#24583235
1%
r31.8548 #
r0.318548 !
r10.1473 "
#24666568
0%
#24749901
1%
r21.3066 #
r0.213066 !
r4.53973 "
#24833234
0%
#24916567
1%
r10.6744 #
r0.106744 !
r1.13943 "
#24999900
0%
#25083233
1%
r2.0819e-14 #
r2.0819e-16 !
r4.33431e-30 "
#25166566
0%
#25249899
1%
r-10.6744 #
r-0.106744 !
r1.13943 "
#25333232
0%
#25416565
1%
r-21.3066 #
r-0.213066 !
r4.53973 "
#25499898
0%
#25583231
1%
r-31.8548 #
r-0.318548 !
r10.1473 "
#25666564
0%
#25749897
1%
r-42.2773 #
r-0.422773 !
r17.8737 "
#25833230
0%
#25916563
1%
r-52.5329 #
r-0.525329 !
r27.597 "
#25999896
0%
#26083229
1%
r-62.5812 #
r-0.625812 !
r39.164 "
#26166562
0%
#26249895
1%
r-72.3825 #
r-0.723825 !
r52.3922 "
#26333228
0%
#26416561
1%
r-81.8981 #
r-0.818981 !
r67.073 "
#26499894
0%
#26583227
1%
r-91.0906 #
r-0.910906 !
r82.9749 "
#26666560
0%
#26749893
1%
r-99.9235 #
r-0.999235 !
r99.847 "
#26833226
0%
#26916559
1%
r-108.362 #
r-1.08362 !
r117.423 "
#26999892
0%
#27083225
1%
r-116.373 #
r-1.16373 !
r135.427 "
#27166558
0%
#27249891
1%
r-123.925 #
r-1.23925 !
r153.573 "
#27333224
0%
#27416557
1%
r-130.987 #
r-1.30987 !
r171.577 "
#27499890
0%
#27583223
1%
r-137.533 #
r-1.37533 !
r189.153 "
#27666556
0%
#27749889
1%
r-143.536 #
r-1.43536 !
r206.025 "
#27833222
0%
#27916555
1%
r-148.972 #
r-1.48972 !
r221.927 "
#27999888
0%
#28083221
1%
r-153.821 #
r-1.53821 !
r236.608 "
#28166554
0%
#28249887
1%
r-158.062 #
r-1.58062 !
r249.836 "
#28333220
0%
#28416553
1%
r-161.68 #
r-1.6168 !
r261.403 "
#28499886
0%
#28583219
1%
r-164.659 #
r-1.64659 !
r271.126 "
#28666552
0%
#28749885
1%
r-166.989 #
r-1.66989 !
r278.853 "
#28833218
0%
#28916551
1%
r-168.659 #
r-1.68659 !
r284.46 "
#28999884
0%
#29083217
1%
r-169.665 #
r-1.69665 !
r287.861 "
#29166550
0%
#29249883
1%
r-170 #
r-1.7 !
r289 "
#29333216
0%
#29416549
1%
r-169.665 #
r-1.69665 !
r287.861 "
#29499882
0%
#29583215
1%
r-168.659 #
r-1.68659 !
r284.46 "
#29666548
0%
#29749881
1%
r-166.989 #
r-1.66989 !
r278.853 "
#29833214
0%
#29916547
1%
r-164.659 #
r-1.64659 !
r271.126 "
#29999880
0%
#30083213
1%
r-161.68 #
r-1.6168 !
r261.403 "
#30166546
0%
#30249879
1%
r-158.062 #
r-1.58062 !
r249.836 "
#30333212
0%
#30416545
1%
r-153.821 #
r-1.53821 !
r236.608 "
#30499878
0%
#30583211
1%
r-148.972 #
r-1.48972 !
r221.927 "
#30666544
0%
#30749877
1%
r-143.536 #
r-1.43536 !
r206.025 "
#30833210
0%
#30916543
1%
r-137.533 #
r-1.37533 !
r189.153 "
#30999876
0%
#31083209
1%
r-130.987 #
r-1.30987 !
r171.577 "
#31166542
0%
#31249875
1%
r-123.925 #
r-1.23925 !
r153.573 "
#31333208
0%
#31416541
1%
r-116.373 #
r-1.16373 !
r135.427 "
#31499874
0%
#31583207
1%
r-108.362 #
r-1.08362 !
r117.423 "
#31666540
0%
#31749873
1%
r-99.9235 #
r-0.999235 !
r99.847 "
#31833206
0%
#31916539
1%
r-91.0906 #
r-0.910906 !
r82.9749 "
#31999872
0%
#32083205
1%
r-81.8981 #
r-0.818981 !
r67.073 "
#32166538
0%
#32249871
1%
r-72.3825 #
r-0.723825 !
r52.3922 "
#32333204
0%
#32416537
1%
r-62.5812 #
r-0.625812 !
r39.164 "
#32499870
0%
#32583203
1%
r-52.5329 #
r-0.525329 !
r27.597 "
#32666536
0%
#32749869
1%
r-42.2773 #
r-0.422773 !
r17.8737 "
#32833202
0%
#32916535
1%
r-31.8548 #
r-0.318548 !
r10.1473 "
#32999868
0%
#33083201
1%
r-21.3066 #
r-0.213066 !
r4.53973 "
#33166534
0%
#33249867
1%
r-10.6744 #
r-0.106744 !
r1.13943 "
#33333200
0%
#33416533
1%
r0 #
r0 !
r0 "
#33499866
0%
#33583199
1%
r10.6744 #
r0.106744 !
r1.13943 "
#33666532
0%
#33749865
1%
r21.3066 #
r0.213066 !
r4.53973 "
#33833198
0%
#33916531
1%
r31.8548 #
r0.318548 !
r10.1473 "
#33999864
0%
#34083197
1%
r42.2773 #
r0.422773 !
r17.8737 "
#34166530
0%
#34249863
1%
r52.5329 #
r0.525329 !
r27.597 "
#34333196
0%
#34416529
1%
r62.5812 #
r0.625812 !
r39.164 "
#34499862
0%
#34583195
1%
r72.3825 #
r0.723825 !
r52.3922 "
#34666528
0%
#34749861
1%
r81.8981 #
r0.818981 !
r67.073 "
#34833194
0%
#34916527
1%
r91.0906 #
r0.910906 !
r82.9749 "
#34999860
0%
#35083193
1%
r99.9235 #
r0.999235 !
r99.847 "
#35166526
0%
#35249859
1%
r108.362 #
r1.08362 !
r117.423 "
#35333192
0%
#35416525
1%
r116.373 #
r1.16373 !
r135.427 "
#35499858
0%
#35583191
1%
r123.925 #
r1.23925 !
r153.573 "
#35666524
0%
#35749857
1%
r130.987 #
r1.30987 !
r171.577 "
#35833190
0%
#35916523
1%
r137.533 #
r1.37533 !
r189.153 "
#35999856
0%
#36083189
1%
r143.536 #
r1.43536 !
r206.025 "
#36166522
0%
#36249855
1%
r148.972 #
r1.48972 !
r221.927 "
#36333188
0%
#36416521
1%
r153.821 #
r1.53821 !
r236.608 "
#36499854
0%
#36583187
1%
r158.062 #
r1.58062 !
r249.836 "
#36666520
0%
#36749853
1%
r161.68 #
r1.6168 !
r261.403 "
#36833186
0%
#36916519
1%
r164.659 #
r1.64659 !
r271.126 "
#36999852
0%
#37083185
1%
r166.989 #
r1.66989 !
r278.853 "
#37166518
0%
#37249851
1%
r168.659 #
r1.68659 !
r284.46 "
#37333184
0%
#37416517
1%
r169.665 #
r1.69665 !
r287.861 "
#37499850
0%
#37583183
1%
r170 #
r1.7 !
r289 "
#37666516
0%
#37749849
1%
r169.665 #
r1.69665 !
r287.861 "
#37833182
0%
#37916515
1%
r168.659 #
r1.68659 !
r284.46 "
#37999848
0%
#38083181
1%
r166.989 #
r1.66989 !
r278.853 "
#38166514
0%
#38249847
1%
r164.659 #
r1.64659 !
r271.126 "
#38333180
0%
#38416513
1%
r161.68 #
r1.6168 !
r261.403 "
#38499846
0%
#38583179
1%
r158.062 #
r1.58062 !
r249.836 "
#38666512
0%
#38749845
1%
r153.821 #
r1.53821 !
r236.608 "
#38833178
0%
#38916511
1%
r148.972 #
r1.48972 !
r221.927 "
#38999844
0%
#39083177
1%
r143.536 #
r1.43536 !
r206.025 "
#39166510
0%
#39249843
1%
r137.533 #
r1.37533 !
r189.153 "
#39333176
0%
#39416509
1%
r130.987 #
r1.30987 !
r171.577 "
#39499842
0%
#39583175
1%
r123.925 #
r1.23925 !
r153.573 "
#39666508
0%
#39749841
1%
r116.373 #
r1.16373 !
r135.427 "
#39833174
0%
#39916507
1%
r108.362 #
r1.08362 !
r117.423 "
#39999840
0%
#40083173
1%
r99.9235 #
r0.999235 !
r99.847 "
#40166506
0%
#40249839
1%
r91.0906 #
r0.910906 !
r82.9749 "
#40333172
0%
#40416505
1%
r81.8981 #
r0.818981 !
r67.073 "
#40499838
0%
#40583171
1%
r72.3825 #
r0.723825 !
r52.3922 "
#40666504
0%
#40749837
1%
r62.5812 #
r0.625812 !
r39.164 "
#40833170
0%
#40916503
1%
r52.5329 #
r0.525329 !
r27.597 "
#40999836
0%
#41083169
1%
r42.2773 #
r0.422773 !
r17.8737 "
#41166502
0%
#41249835
1%
r31.8548 #
r0.318548 !
r10.1473 "
#41333168
0%
#41416501
1%
r21.3066 #
r0.213066 !
r4.53973 "
#41499834
0%
#41583167
1%
r10.6744 #
r0.106744 !
r1.13943 "
#41666500
0%
#41749833
1%
r2.0819e-14 #
r2.0819e-16 !
r4.33431e-30 "
#41833166
0%
#41916499
1%
r-10.6744 #
r-0.106744 !
r1.13943 "
#41999832
0%
#42083165
1%
r-21.3066 #
r-0.213066 !
r4.53973 "
#42166498
0%
#42249831
1%
r-31.8548 #
r-0.318548 !
r10.1473 "
#42333164
0%
#42416497
1%
r-42.2773 #
r-0.422773 !
r17.8737 "
#42499830
0%
#42583163
1%
r-52.5329 #
r-0.525329 !
r27.597 "
#42666496
0%
#42749829
1%
r-62.5812 #
r-0.625812 !
r39.164 "
#42833162
0%
#42916495
1%
r-72.3825 #
r-0.723825 !
r52.3922 "
#42999828
0%
#43083161
1%
r-81.8981 #
r-0.818981 !
r67.073 "
#43166494
0%
#43249827
1%
r-91.0906 #
r-0.910906 !
r82.9749 "
#43333160
0%
#43416493
1%
r-99.9235 #
r-0.999235 !
r99.847 "
#43499826
0%
#43583159
1%
r-108.362 #
r-1.08362 !
r117.423 "
#43666492
0%
#43749825
1%
r-116.373 #
r-1.16373 !
r135.427 "
#43833158
0%
#43916491
1%
r-123.925 #
r-1.23925 !
r153.573 "
#43999824
0%
#44083157
1%
r-130.987 #
r-1.30987 !
r171.577 "
#44166490
0%
#44249823
1%
r-137.533 #
r-1.37533 !
r189.153 "
#44333156
0%
#44416489
1%
r-143.536 #
r-1.43536 !
r206.025 "
#44499822
0%
#44583155
1%
r-148.972 #
r-1.48972 !
r221.927 "
#44666488
0%
#44749821
1%
r-153.821 #
r-1.53821 !
r236.608 "
#44833154
0%
#44916487
1%
r-158.062 #
r-1.58062 !
r249.836 "
#44999820
0%
#45083153
1%
r-161.68 #
r-1.6168 !
r261.403 "
#45166486
0%
#45249819
1%
r-164.659 #
r-1.64659 !
r271.126 "
#45333152
0%
#45416485
1%
r-166.989 #
r-1.66989 !
r278.853 "
#45499818
0%
#45583151
1%
r-168.659 #
r-1.68659 !
r284.46 "
#45666484
0%
#45749817
1%
r-169.665 #
r-1.69665 !
r287.861 "
#45833150
0%
#45916483
1%
r-170 #
r-1.7 !
r289 "
#45999816
0%
#46083149
1%
r-169.665 #
r-1.69665 !
r287.861 "
#46166482
0%
#46249815
1%
r-168.659 #
r-1.68659 !
r284.46 "
#46333148
0%
#46416481
1%
r-166.989 #
r-1.66989 !
r278.853 "
#46499814
0%
#46583147
1%
r-164.659 #
r-1.64659 !
r271.126 "
#46666480
0%
#46749813
1%
r-161.68 #
r-1.6168 !
r261.403 "
#46833146
0%
#46916479
1%
r-158.062 #
r-1.58062 !
r249.836 "
#46999812
0%
#47083145
1%
r-153.821 #
r-1.53821 !
r236.608 "
#47166478
0%
#47249811
1%
r-148.972 #
r-1.48972 !
r221.927 "
#47333144
0%
#47416477
1%
r-143.536 #
r-1.43536 !
r206.025 "
#47499810
0%
#47583143
1%
r-137.533 #
r-1.37533 !
r189.153 "
#47666476
0%
#47749809
1%
r-130.987 #
r-1.30987 !
r171.577 "
#47833142
0%
#47916475
1%
r-123.925 #
r-1.23925 !
r153.573 "
#47999808
0%
#48083141
1%
r-116.373 #
r-1.16373 !
r135.427 "
#48166474
0%
#48249807
1%
r-108.362 #
r-1.08362 !
r117.423 "
#48333140
0%
#48416473
1%
r-99.9235 #
r-0.999235 !
r99.847 "
#48499806
0%
#48583139
1%
r-91.0906 #
r-0.910906 !
r82.9749 "
#48666472
0%
#48749805
1%
r-81.8981 #
r-0.818981 !
r67.073 "
#48833138
0%
#48916471
1%
r-72.3825 #
r-0.723825 !
r52.3922 "
#48999804
0%
#49083137
1%
r-62.5812 #
r-0.625812 !
r39.164 "
#49166470
0%
#49249803
1%
r-52.5329 #
r-0.525329 !
r27.597 "
#49333136
0%
#49416469
1%
r-42.2773 #
r-0.422773 !
r17.8737 "
#49499802
0%
#49583135
1%
r-31.8548 #
r-0.318548 !
r10.1473 "
#49666468
0%
#49749801
1%
r-21.3066 #
r-0.213066 !
r4.53973 "
#49833134
0%
#49916467
1%
r-10.6744 #
r-0.106744 !
r1.13943 "
#49999800
0%
#50083133
1%
r0 #
r0 !
r0 "
#50166466
0%
#50249799
1%
r10.6744 #
r0.106744 !
r1.13943 "
#50333132
0%
#50416465
1%
r21.3066 #
r0.213066 !
r4.53973 "
#50499798
0%
#50583131
1%
r31.8548 #
r0.318548 !
r10.1473 "
#50666464
0%
#50749797
1%
r42.2773 #
r0.422773 !
r17.8737 "
#50833130
0%
#50916463
1%
r52.5329 #
r0.525329 !
r27.597 "
#50999796
0%
#51083129
1%
r62.5812 #
r0.625812 !
r39.164 "
#51166462
0%
#51249795
1%
r72.3825 #
r0.723825 !
r52.3922 "
#51333128
0%
#51416461
1%
r81.8981 #
r0.818981 !
r67.073 "
#51499794
0%
#51583127
1%
r91.0906 #
r0.910906 !
r82.9749 "
#51666460
0%
#51749793
1%
r99.9235 #
r0.999235 !
r99.847 "
#51833126
0%
#51916459
1%
r108.362 #
r1.08362 !
r117.423 "
#51999792
0%
#52083125
1%
r116.373 #
r1.16373 !
r135.427 "
#52166458
0%
#52249791
1%
r123.925 #
r1.23925 !
r153.573 "
#52333124
0%
#52416457
1%
r130.987 #
r1.30987 !
r171.577 "
#52499790
0%
#52583123
1%
r137.533 #
r1.37533 !
r189.153 "
#52666456
0%
#52749789
1%
r143.536 #
r1.43536 !
r206.025 "
#52833122
0%
#52916455
1%
r148.972 #
r1.48972 !
r221.927 "
#52999788
0%
#53083121
1%
r153.821 #
r1.53821 !
r236.608 "
#53166454
0%
#53249787
1%
r158.062 #
r1.58062 !
r249.836 "
#53333120
0%
#53416453
1%
r161.68 #
r1.6168 !
r261.403 "
#53499786
0%
#53583119
1%
r164.659 #
r1.64659 !
r271.126 "
#53666452
0%
#53749785
1%
r166.989 #
r1.66989 !
r278.853 "
#53833118
0%
#53916451
1%
r168.659 #
r1.68659 !
r284.46 "
#53999784
0%
#54083117
1%
r169.665 #
r1.69665 !
r287.861 "
#54166450
0%
#54249783
1%
r170 #
r1.7 !
r289 "
#54333116
0%
#54416449
1%
r169.665 #
r1.69665 !
r287.861 "
#54499782
0%
#54583115
1%
r168.659 #
r1.68659 !
r284.46 "
#54666448
0%
#54749781
1%
r166.989 #
r1.66989 !
r278.853 "
#54833114
0%
#54916447
1%
r164.659 #
r1.64659 !
r271.126 "
#54999780
0%
#55083113
1%
r161.68 #
r1.6168 !
r261.403 "
#55166446
0%
#55249779
1%
r158.062 #
r1.58062 !
r249.836 "
#55333112
0%
#55416445
1%
r153.821 #
r1.53821 !
r236.608 "
#55499778
0%
#55583111
1%
r148.972 #
r1.48972 !
r221.927 "
#55666444
0%
#55749777
1%
r143.536 #
r1.43536 !
r206.025 "
#55833110
0%
#55916443
1%
r137.533 #
r1.37533 !
r189.153 "
#55999776
0%
#56083109
1%
r130.987 #
r1.30987 !
r171.577 "
#56166442
0%
#56249775
1%
r123.925 #
r1.23925 !
r153.573 "
#56333108
0%
#56416441
1%
r116.373 #
r1.16373 !
r135.427 "
#56499774
0%
#56583107
1%
r108.362 #
r1.08362 !
r117.423 "
#56666440
0%
#56749773
1%
r99.9235 #
r0.999235 !
r99.847 "
#56833106
0%
#56916439
1%
r91.0906 #
r0.910906 !
r82.9749 "
#56999772
0%
#57083105
1%
r81.8981 #
r0.818981 !
r67.073 "
#57166438
0%
#57249771
1%
r72.3825 #
r0.723825 !
r52.3922 "
#57333104
0%
#57416437
1%
r62.5812 #
r0.625812 !
r39.164 "
#57499770
0%
#57583103
1%
r52.5329 #
r0.525329 !
r27.597 "
#57666436
0%
#57749769
1%
r42.2773 #
r0.422773 !
r17.8737 "
#57833102
0%
#57916435
1%
r31.8548 #
r0.318548 !
r10.1473 "
#57999768
0%
#58083101
1%
r21.3066 #
r0.213066 !
r4.53973 "
#58166434
0%
#58249767
1%
r10.6744 #
r0.106744 !
r1.13943 "
#58333100
0%
#58416433
1%
r2.0819e-14 #
r2.0819e-16 !
r4.33431e-30 "
#58499766
0%
#58583099
1%
r-10.6744 #
r-0.106744 !
r1.13943 "
#58666432
0%
#58749765
1%
r-21.3066 #
r-0.213066 !
r4.53973 "
#58833098
0%
#58916431
1%
r-31.8548 #
r-0.318548 !
r10.1473 "
#58999764
0%
#59083097
1%
r-42.2773 #
r-0.422773 !
r17.8737 "
#59166430
0%
#59249763
1%
r-52.5329 #
r-0.525329 !
r27.597 "
#59333096
0%
#59416429
1%
r-62.5812 #
r-0.625812 !
r39.164 "
#59499762
0%
#59583095
1%
r-72.3825 #
r-0.723825 !
r52.3922 "
#59666428
0%
#59749761
1%
r-81.8981 #
r-0.818981 !
r67.073 "
#59833094
0%
#59916427
1%
r-91.0906 #
r-0.910906 !
r82.9749 "
#59999760
0%
#60083093
1%
r-99.9235 #
r-0.999235 !
r99.847 "
#60166426
0%
#60249759
1%
r-108.362 #
r-1.08362 !
r117.423 "
#60333092
0%
#60416425
1%
r-116.373 #
r-1.16373 !
r135.427 "
#60499758
0%
#60583091
1%
r-123.925 #
r-1.23925 !
r153.573 "
#60666424
0%
#60749757
1%
r-130.987 #
r-1.30987 !
r171.577 "
#60833090
0%
#60916423
1%
r-137.533 #
r-1.37533 !
r189.153 "
#60999756
0%
#61083089
1%
r-143.536 #
r-1.43536 !
r206.025 "
#61166422
0%
#61249755
1%
r-148.972 #
r-1.48972 !
r221.927 "
#61333088
0%
#61416421
1%
r-153.821 #
r-1.53821 !
r236.608 "
#61499754
0%
#61583087
1%
r-158.062 #
r-1.58062 !
r249.836 "
#61666420
0%
#61749753
1%
r-161.68 #
r-1.6168 !
r261.403 "
#61833086
0%
#61916419
1%
r-164.659 #
r-1.64659 !
r271.126 "
#61999752
0%
#62083085
1%
r-166.989 #
r-1.66989 !
r278.853 "
#62166418
0%
#62249751
1%
r-168.659 #
r-1.68659 !
r284.46 "
#62333084
0%
#62416417
1%
r-169.665 #
r-1.69665 !
r287.861 "
#62499750
0%
#62583083
1%
r-170 #
r-1.7 !
r289 "
#62666416
0%
